DplyrTidyrLab
…
set()
68.507
184.819
120.1329
126.9620
22

Question 5

Below is the simple dataframe displaying the mean liveness and mean danceability per year:

# A tibble: 23 × 3
    year mean_liveness mean_danceability
   <int>         <dbl>             <dbl>
 1  1998         0.18              0.727
 2  1999         0.166             0.669
 3  2000         0.181             0.690
 4  2001         0.174             0.674
 5  2002         0.193             0.675
 6  2003         0.163             0.665
 7  2004         0.180             0.697
 8  2005         0.188             0.673
 9  2006         0.198             0.661
10  2007         0.184             0.631
# ℹ 13 more rows
…
